pract_1/decoder_3_tb.vcd
$date
  Thu Sep 21 15:54:00 2023
$end
$version
  GHDL v0
$end
$timescale
  1 fs
$end
$scope module standard $end
$upscope $end
$scope module std_logic_1164 $end
$upscope $end
$scope module numeric_std $end
$upscope $end
$scope module decoder_3_tb $end
$var reg 1 ! a $end
$var reg 1 " b $end
$var reg 1 # c $end
$var reg 1 $ e $end
$var reg 8 % q[7:0] $end
$scope module decode_map $end
$var reg 1 & d3_a $end
$var reg 1 ' d3_b $end
$var reg 1 ( d3_c $end
$var reg 1 ) d3_e $end
$var reg 8 * d3_q[7:0] $end
$var reg 1 + dec2_e $end
$var reg 4 , x1[3:0] $end
$scope module decode_map $end
$var reg 1 - a $end
$var reg 1 . b $end
$var reg 1 / e $end
$var reg 4 0 q[3:0] $end
$upscope $end
$upscope $end
$upscope $end
$enddefinitions $end
#0
U!
U"
U#
0$
bUUUUUUUU %
U&
U'
U(
0)
bUUUUUUUU *
U+
bUUUU ,
U-
U.
U/
bUUUU 0
#1000000
0!
0"
0#
1$
b0000UUUU %
0&
0'
0(
1)
b0000UUUU *
b0001 ,
0-
0.
b0001 0
#2000000
1!
b00000001 %
1&
b00000001 *
b0010 ,
1-
b0010 0
#3000000
0!
1"
b00000010 %
0&
1'
b00000010 *
b0100 ,
0-
1.
b0100 0
#4000000
1!
b00000100 %
1&
b00000100 *
b1000 ,
1-
b1000 0
#5000000
0!
0"
1#
b10000000 %
0&
0'
1(
b10000000 *
b0001 ,
0-
0.
b0001 0
#6000000
1!
b00010000 %
1&
b00010000 *
b0010 ,
1-
b0010 0
#7000000
0!
1"
b00100000 %
0&
1'
b00100000 *
b0100 ,
0-
1.
b0100 0
#8000000
1!
b01000000 %
1&
b01000000 *
b1000 ,
1-
b1000 0
